C:\Users\gkfoury\Documents\Filer\src\main\java\com\files\service\FileRead.java
C:\Users\gkfoury\Documents\Filer\src\main\java\com\files\FilerApplication.java
C:\Users\gkfoury\Documents\Filer\src\main\java\com\files\controllers\SearchController.java
C:\Users\gkfoury\Documents\Filer\src\main\java\com\files\model\Criteria.java
C:\Users\gkfoury\Documents\Filer\src\main\java\com\files\model\PathFile.java
C:\Users\gkfoury\Documents\Filer\src\main\java\com\files\controllers\HomeController.java
